{
  "extensionName": {
    "message": "Get/Send Button"
  },
  "extensionDescription": {
    "message": "Ferbettere funksjes foar it ûtfangen en ferstjoeren fan berjochten"
  },
  "buttonGetOnly": {
    "message": "E-mail ophelje"
  },
  "buttonGetAndSend": {
    "message": "Ophelje/ferstjoere"
  },
  "buttonGetsend_tooltip": {
    "message": "Funksje is konfigurearber"
  },
  "buttonSendall": {
    "message": "Alles ferstjoere"
  },
  "buttonSendall_tooltip": {
    "message": "Alles út map Net-ferstjoerd ferstjoere"
  },
  "menuGetall": {
    "message": "Alle nije berjochten fan alle accounts ophelje"
  },
  "menuGetall_tooltip": {
    "message": "…en freegje om ûntbrekkende wachtwurden!"
  },
  "menuGetauth": {
    "message": "Berjochten fan alle autorisearre accounts ophelje"
  },
  "menuGetauth_tooltip": {
    "message": "…net om ûntbrekkende wachtwurden freegje!"
  },
  "menuGetthis": {
    "message": "Berjochten fan selektearre account ophelje"
  },
  "menuGetthis_tooltip": {
    "message": "Nije berjochten fan selektearre account ophelje"
  },
  "menuSendall": {
    "message": "Alle net ferstjoerde berjochten ferstjoere"
  },
  "menuSendall_tooltip": {
    "message": "Alle berjochten út map Net-ferstjoerd ferstjoere"
  },
  "menuSyncAll_tooltip": {
    "message": "Nijs/IMAP-berjochten syngronisearje"
  },
  "optionGetSendButtonAskPasswords": {
    "message": "Freegje nei missende wachtwurden (ek falide foar Shift+Klik)"
  },
  "optionButtonSendOrGetAndSend": {
    "message": "Knop ‘Ophelje/ferstjoere’"
  },
  "optionRadioGetSendButtonGetAllAccounts": {
    "message": "Alle accounts"
  },
  "optionRadioGetSendButtonGetOnlySingleAccount": {
    "message": "Allinnich wichtigste account"
  },
  "optionRadioGetSendButtonSendNo": {
    "message": "Allinnich berjochten ophelje"
  },
  "optionRadioGetSendButtonSendYes": {
    "message": "Berjochten ophelje en ferstjoere"
  },
  "optionButtonFunctionHeader": {
    "message": "Knopfunksjes"
  },
  "optionGetAllOrSingle": {
    "message": "Krij nije berjochten fan:"
  },
  "optionButtonFunctionDescription": {
    "message": "Knop ‘Ophelje/ferstjoere’ konfigurearje:"
  },
  "optionPageTitle": {
    "message": "Get/Send-Button_ foarkarren"
  },

  "optionDebugHeader": {
    "message": "Debug mode"
  },
  "optionDebugDescription": {
    "message": "Debug information will be logged in the error console."
  },
  "optionDebug": {
    "message": "Activate debug mode"
  },

  "optionResetAllOptionsHeader": {
    "message": "Reset all options"
  },
  "optionResetAllOptionsDescription": {
    "message": "Click to reset all options to their default values."
  },
  "optionButtonReset": {
    "message": "Reset"
  }
}