{
  "extensionDescription": {
    "message": "Funcions millorades per a recuperar i enviar missatges"
  },
  "extensionName": {
    "message": "Get/Send Button"
  },
  "buttonGetOnly": {
    "message": "Recupera"
  },
  "buttonGetAndSend": {
    "message": "Recupera/Envia"
  },
  "buttonGetsend_tooltip": {
    "message": "Funció Configurable"
  },
  "buttonSendall": {
    "message": "Envia tot"
  },
  "buttonSendall_tooltip": {
    "message": "Envia tots els missatges no enviats de la carpeta Missatges per enviar"
  },
  "menuGetall": {
    "message": "Recupera els missatges de tots els comptes"
  },
  "menuGetall_tooltip": {
    "message": "…i pregunta per les contrasenyes que calga!"
  },
  "menuGetauth": {
    "message": "Recupera els missatges de tots els comptes autentificats"
  },
  "menuGetauth_tooltip": {
    "message": "…sense preguntar per les contrasenyes que falten."
  },
  "menuGetthis": {
    "message": "Recupera els missatges del compte seleccionat"
  },
  "menuGetthis_tooltip": {
    "message": "Recupera els nous missatges del compte seleccionat"
  },
  "menuSendall": {
    "message": "Envia tots els missatges no enviats"
  },
  "menuSendall_tooltip": {
    "message": "Envia tots els missatges de la carpeta Missatges per enviar"
  },
  "menuSyncAll_tooltip": {
    "message": "Sincronitza notícies o missatges IMAP"
  },
  "optionGetSendButtonAskPasswords": {
    "message": "Ask for missing passwords (valid for Shift+Click too)"
  },
  "optionButtonSendOrGetAndSend": {
    "message": "Botó 'Recupera/Envia'"
  },
  "optionRadioGetSendButtonGetAllAccounts": {
    "message": "All accounts"
  },
  "optionRadioGetSendButtonGetOnlySingleAccount": {
    "message": "Focussed account only"
  },
  "optionRadioGetSendButtonSendNo": {
    "message": "Només recupera els missatges"
  },
  "optionRadioGetSendButtonSendYes": {
    "message": "Recupera i envia els missatges"
  },
  "optionButtonFunctionHeader": {
    "message": "Funcions dels botons"
  },
  "optionGetAllOrSingle": {
    "message": "Get new messages from:"
  },
  "optionButtonFunctionDescription": {
    "message": "Configura el botó 'Recupera/Envia'"
  },
  "optionPageTitle": {
    "message": "Preferències del Get/Send-Button"
  },

  "optionDebugHeader": {
    "message": "Debug mode"
  },
  "optionDebugDescription": {
    "message": "Debug information will be logged in the error console."
  },
  "optionDebug": {
    "message": "Activate debug mode"
  },

  "optionResetAllOptionsHeader": {
    "message": "Reset all options"
  },
  "optionResetAllOptionsDescription": {
    "message": "Click to reset all options to their default values."
  },
  "optionButtonReset": {
    "message": "Reset"
  }
}