{
  "extensionDescription": {
    "message": "Dit is een gecombineerde knop om berichten op te halen en te verzenden, inclusief een pop-upmenu met extra functies."
  },
  "extensionName": {
    "message": "Get/Send Button"
  },
  "buttonGetOnly": {
    "message": "Berichten ophalen"
  },
  "buttonGetAndSend": {
    "message": "Ophalen/verzenden"
  },
  "buttonGetsend_tooltip": {
    "message": "Functie is configureerbaar"
  },
  "buttonSendall": {
    "message": "Alles verzenden"
  },
  "buttonSendall_tooltip": {
    "message": "Alles uit map Niet Verzonden verzenden"
  },
  "menuGetall": {
    "message": "Alle nieuwe berichten van alle accounts ophalen"
  },
  "menuGetall_tooltip": {
    "message": "…en om ontbrekende wachtwoorden vragen!"
  },
  "menuGetauth": {
    "message": "Berichten van alle geautoriseerde accounts ophalen"
  },
  "menuGetauth_tooltip": {
    "message": "…niet om ontbrekende wachtwoorden vragen!"
  },
  "menuGetthis": {
    "message": "Berichten van geselecteerde account ophalen"
  },
  "menuGetthis_tooltip": {
    "message": "Nieuwe berichten van geselecteerde account ophalen"
  },
  "menuSendall": {
    "message": "Alle niet verzonden berichten verzenden"
  },
  "menuSendall_tooltip": {
    "message": "Alle berichten uit map Niet Verzonden verzenden"
  },
  "menuSyncAll_tooltip": {
    "message": "News/IMAP-berichten synchroniseren"
  },
  "optionGetSendButtonAskPasswords": {
    "message": "Om ontbrekende wachtwoorden vragen (geldt ook voor Shift+klik)"
  },
  "optionButtonSendOrGetAndSend": {
    "message": "Knop ‘Ophalen/verzenden’"
  },
  "optionRadioGetSendButtonGetAllAccounts": {
    "message": "Alle accounts"
  },
  "optionRadioGetSendButtonGetOnlySingleAccount": {
    "message": "Alleen account met focus"
  },
  "optionRadioGetSendButtonSendNo": {
    "message": "Alleen berichten ophalen"
  },
  "optionRadioGetSendButtonSendYes": {
    "message": "Berichten ophalen en verzenden"
  },
  "optionButtonFunctionHeader": {
    "message": "Knopfuncties"
  },
  "optionGetAllOrSingle": {
    "message": "Nieuwe berichten ophalen van:"
  },
  "optionButtonFunctionDescription": {
    "message": "Knop ‘Ophalen/verzenden’ configureren:"
  },
  "optionPageTitle": {
    "message": "Get/Send-Button-voorkeuren"
  },

  "optionDebugHeader": {
    "message": "Debug mode"
  },
  "optionDebugDescription": {
    "message": "Debug information will be logged in the error console."
  },
  "optionDebug": {
    "message": "Activate debug mode"
  },

  "optionResetAllOptionsHeader": {
    "message": "Reset all options"
  },
  "optionResetAllOptionsDescription": {
    "message": "Click to reset all options to their default values."
  },
  "optionButtonReset": {
    "message": "Reset"
  }
}