{
  "extensionDescription": {
    "message": "Udoskonalone funkcje wysyłania i pobierania wiadomości."
  },
  "extensionName": {
    "message": "Get/Send Button"
  },
  "buttonGetOnly": {
    "message": "Pobierz"
  },
  "buttonGetAndSend": {
    "message": "Pobierz/Wyślij"
  },
  "buttonGetsend_tooltip": {
    "message": "Funkcja konfigurowalna"
  },
  "buttonSendall": {
    "message": "Wyślij wszystko"
  },
  "buttonSendall_tooltip": {
    "message": "Wysyła wszystkie wiadomości z folderu Niewysłane"
  },
  "menuGetall": {
    "message": "Pobierz wiadomości ze wszystkich kont"
  },
  "menuGetall_tooltip": {
    "message": "…i pytaj o brakujące hasła!"
  },
  "menuGetauth": {
    "message": "Pobierz wiadomości ze wszystkich autoryzowanych kont"
  },
  "menuGetauth_tooltip": {
    "message": "…ale nie pytaj o brakujące hasła!"
  },
  "menuGetthis": {
    "message": "Pobierz wiadomości z wybranego konta"
  },
  "menuGetthis_tooltip": {
    "message": "Pobiera nowe wiadomości z wybranego konta"
  },
  "menuSendall": {
    "message": "Wyślij wszystkie niewysłane"
  },
  "menuSendall_tooltip": {
    "message": "Wysyła wszystkie wiadomości z folderu Niewysłane"
  },
  "menuSyncAll_tooltip": {
    "message": "Synchronizuje Newsy/wiadomości IMAP"
  },
  "optionGetSendButtonAskPasswords": {
    "message": "Pytaj o brakujące hasła (działa także z Shift + kliknięcie)"
  },
  "optionButtonSendOrGetAndSend": {
    "message": "Przycisk Pobierz/Wyślij"
  },
  "optionRadioGetSendButtonGetAllAccounts": {
    "message": "ze wszystkich kont"
  },
  "optionRadioGetSendButtonGetOnlySingleAccount": {
    "message": "tylko z aktywnego konta"
  },
  "optionRadioGetSendButtonSendNo": {
    "message": "tylko pobranie wiadomości"
  },
  "optionRadioGetSendButtonSendYes": {
    "message": "pobranie i wysłanie wiadomości"
  },
  "optionButtonFunctionHeader": {
    "message": "Funkcje przycisku"
  },
  "optionGetAllOrSingle": {
    "message": "Pobieraj nowe wiadomości:"
  },
  "optionButtonFunctionDescription": {
    "message": "Naciśnięcie przycisku Pobierz/Wyślij spowoduje:"
  },
  "optionPageTitle": {
    "message": "Get/Send Button – ustawienia"
  },

  "optionDebugHeader": {
    "message": "Debug mode"
  },
  "optionDebugDescription": {
    "message": "Debug information will be logged in the error console."
  },
  "optionDebug": {
    "message": "Activate debug mode"
  },

  "optionResetAllOptionsHeader": {
    "message": "Reset all options"
  },
  "optionResetAllOptionsDescription": {
    "message": "Click to reset all options to their default values."
  },
  "optionButtonReset": {
    "message": "Reset"
  }
}