{
  "extensionDescription": {
    "message": "Fonctions améliorées pour recevoir et envoyer des messages."
  },
  "extensionName": {
    "message": "Get/Send Button"
  },
  "buttonGetOnly": {
    "message": "Relever"
  },
  "buttonGetAndSend": {
    "message": "Relever/Envoyer"
  },
  "buttonGetsend_tooltip": {
    "message": "Fonction configurable"
  },
  "buttonSendall": {
    "message": "Envoyer tout"
  },
  "buttonSendall_tooltip": {
    "message": "Envoyer tous les messages contenus dans le dossier messages en attente"
  },
  "menuGetall": {
    "message": "Relever les messages de tous les comptes"
  },
  "menuGetall_tooltip": {
    "message": "…et demander les mots de passe perdus !"
  },
  "menuGetauth": {
    "message": "Relever les messages de tous les comptes auth."
  },
  "menuGetauth_tooltip": {
    "message": "…ne pas demander de mots de passe !"
  },
  "menuGetthis": {
    "message": "Relever les messages du compte sélectionné"
  },
  "menuGetthis_tooltip": {
    "message": "Relever les nouveaux messages du compte sélectionné"
  },
  "menuSendall": {
    "message": "Envoyer tous les messages en attente"
  },
  "menuSendall_tooltip": {
    "message": "Envoyer tous les messages contenus dans le dossier messages en attente"
  },
  "menuSyncAll_tooltip": {
    "message": "Synchroniser les messages news/IMAP"
  },
  "optionGetSendButtonAskPasswords": {
    "message": "Ask for missing passwords (valid for Shift+Click too)"
  },
  "optionButtonSendOrGetAndSend": {
    "message": "Bouton «Relever/Envoyer»"
  },
  "optionRadioGetSendButtonGetAllAccounts": {
    "message": "All accounts"
  },
  "optionRadioGetSendButtonGetOnlySingleAccount": {
    "message": "Focussed account only"
  },
  "optionRadioGetSendButtonSendNo": {
    "message": "Uniquement relever les messages"
  },
  "optionRadioGetSendButtonSendYes": {
    "message": "Relever et envoyer les messages"
  },

  "optionButtonFunctionHeader": {
    "message": "Bouton fonctions"
  },
  "optionGetAllOrSingle": {
    "message": "Get new messages from:"
  },
  "optionButtonFunctionDescription": {
    "message": "Configurer le bouton «Relever/Envoyer» :"
  },
  "optionPageTitle": {
    "message": "Préférences de Get/Send-Button"
  },

  "optionDebugHeader": {
    "message": "Debug mode"
  },
  "optionDebugDescription": {
    "message": "Debug information will be logged in the error console."
  },
  "optionDebug": {
    "message": "Activate debug mode"
  },

  "optionResetAllOptionsHeader": {
    "message": "Reset all options"
  },
  "optionResetAllOptionsDescription": {
    "message": "Click to reset all options to their default values."
  },
  "optionButtonReset": {
    "message": "Reset"
  }
}