{
  "extensionDescription": {
    "message": "Unaprijeđene funkcije za primanje i slanje poruka"
  },
  "extensionName": {
    "message": "Get/Send Button"
  },
  "buttonGetOnly": {
    "message": "Dohvati poruke"
  },
  "buttonGetAndSend": {
    "message": "Primi/Pošalji"
  },
  "buttonGetsend_tooltip": {
    "message": "Funkcija se može konfigurirati"
  },
  "buttonSendall": {
    "message": "Pošalji sve"
  },
  "buttonSendall_tooltip": {
    "message": "Pošaljite sve neposlane poruke iz mape Neposlane"
  },
  "menuGetall": {
    "message": "Primi poruke za sve račune"
  },
  "menuGetall_tooltip": {
    "message": "…i pitaj za lozinke koje nedostaju!"
  },
  "menuGetauth": {
    "message": "Primi poruke za sve dopuštene račune"
  },
  "menuGetauth_tooltip": {
    "message": "…i ne pitaj za lozinke koje nedostaju!"
  },
  "menuGetthis": {
    "message": "Primi poruke za odabrani račun"
  },
  "menuGetthis_tooltip": {
    "message": "Primite nove poruke za odabrani račun"
  },
  "menuSendall": {
    "message": "Pošalji sve neposlane"
  },
  "menuSendall_tooltip": {
    "message": "Pošaljite sve poruke iz mape Neposlano"
  },
  "menuSyncAll_tooltip": {
    "message": "Sinhronizirajte usenet/IMAP-poruke"
  },
  "optionGetSendButtonAskPasswords": {
    "message": "Ask for missing passwords (valid for Shift+Click too)"
  },
  "optionButtonSendOrGetAndSend": {
    "message": "GumbButton 'Primi/Pošalji'"
  },
  "optionRadioGetSendButtonGetAllAccounts": {
    "message": "All accounts"
  },
  "optionRadioGetSendButtonGetOnlySingleAccount": {
    "message": "Focussed account only"
  },
  "optionRadioGetSendButtonSendNo": {
    "message": "Samo primi poruke"
  },
  "optionRadioGetSendButtonSendYes": {
    "message": "Primi + pošalji poruke"
  },

  "optionButtonFunctionHeader": {
    "message": "Funkcije gumba"
  },
  "optionGetAllOrSingle": {
    "message": "Get new messages from:"
  },
  "optionButtonFunctionDescription": {
    "message": "Konfiguriraj gumb 'Primi/Pošalji':"
  },
  "optionPageTitle": {
    "message": "Get/Send-Button_ Postavke"
  },

  "optionDebugHeader": {
    "message": "Debug mode"
  },
  "optionDebugDescription": {
    "message": "Debug information will be logged in the error console."
  },
  "optionDebug": {
    "message": "Activate debug mode"
  },

  "optionResetAllOptionsHeader": {
    "message": "Reset all options"
  },
  "optionResetAllOptionsDescription": {
    "message": "Click to reset all options to their default values."
  },
  "optionButtonReset": {
    "message": "Reset"
  }
}